[{"id":1,"fecha":"9/16/2018","importe":91,"latitud":-31.5534831,"logitud":-63.5362339,"ciudad":"Villa del Rosario"},
{"id":2,"fecha":"12/28/2018","importe":21,"latitud":43.4945737,"logitud":5.8978018,"ciudad":"Paris 03"},
{"id":3,"fecha":"2/28/2019","importe":91,"latitud":9.546414,"logitud":122.521763,"ciudad":"Bacuyangan"},
{"id":4,"fecha":"6/6/2019","importe":96,"latitud":-34.0666916,"logitud":-70.7325646,"ciudad":"Graneros"},
{"id":5,"fecha":"6/4/2019","importe":63,"latitud":45.4002994,"logitud":29.5961736,"ciudad":"Vylkove"},
{"id":6,"fecha":"8/8/2018","importe":26,"latitud":33.3128057,"logitud":44.3614875,"ciudad":"Baghdad"},
{"id":7,"fecha":"4/16/2019","importe":19,"latitud":69.4086014,"logitud":30.2266634,"ciudad":"Nikel’"},
{"id":8,"fecha":"5/2/2019","importe":54,"latitud":15.6452543,"logitud":-91.6875527,"ciudad":"Jacaltenango"},
{"id":9,"fecha":"8/4/2018","importe":41,"latitud":9.5188754,"logitud":-7.5572231,"ciudad":"Odienné"},
{"id":10,"fecha":"2/28/2019","importe":68,"latitud":59.2832062,"logitud":17.9570059,"ciudad":"Hägersten"}]
