[{"id":1,"fecha":"4/16/2019","importe":80,"latitud":46.2824183,"logitud":48.0477271},
{"id":2,"fecha":"3/14/2019","importe":4,"latitud":9.1192516,"logitud":4.8261424},
{"id":3,"fecha":"12/16/2018","importe":11,"latitud":48.1997412,"logitud":16.983641},
{"id":4,"fecha":"5/21/2019","importe":82,"latitud":35.8966741,"logitud":139.370979},
{"id":5,"fecha":"12/9/2018","importe":71,"latitud":51.9653089,"logitud":15.5284132},
{"id":6,"fecha":"5/29/2019","importe":15,"latitud":-12.3992902,"logitud":-74.8659421},
{"id":7,"fecha":"2/4/2019","importe":81,"latitud":16.9334683,"logitud":121.7587348},
{"id":8,"fecha":"4/7/2019","importe":30,"latitud":36.7550603,"logitud":66.8975372},
{"id":9,"fecha":"9/19/2018","importe":57,"latitud":21.17016,"logitud":110.084068},
{"id":10,"fecha":"6/7/2019","importe":98,"latitud":"40.49357","logitud":"46.07175"}]
